Capítulo: 2 Entregable 2 | Temperatura histórica en la ciudad de Bogotá.
…
## The following objects are masked from 'package:base':
## 
##     date, intersect, setdiff, union

Code

faltantes_por_ano <- datos_filtrados %>%
  mutate(anio = year(as.Date(time))) %>%
  group_by(anio) %>%
  summarise(faltantes = sum(is.na(tavg)))

print(faltantes_por_ano)

## # A tibble: 72 × 2
##     anio faltantes
##    <dbl>     <int>
##  1  1941         0
##  2  1942         0
##  3  1943         0
##  4  1944         0
##  5  1945         0
##  6  1959         0
##  7  1960         0
##  8  1961         0
##  9  1962         0
## 10  1963         0
## # ℹ 62 more rows
…
